﻿API Name,Category,Administrative Permissions
PermissionsActivateContract,Productivity,Activate Contracts - Allows the user to change contract's status to Activated.
PermissionsApiEnabled,API,API Enabled  - Allows the user to use applications. 
PermissionsApiUserOnly,Integration,Api Only User - Allows the user to access Salesforce through API instead of the user interface.
PermissionsAssignPermissionSets,Security,Assign Permission Sets - Allows the user to assign Permission Sets to users.
PermissionsAssignTopics,Productivity,Assign Topics - Allows the user to assign existing topics to feed items and remove topics from feed items.
PermissionsAuthorApex,ALM,Author Apex - Allows the user to create and EDIT Apex classes and Triggers.
PermissionsBulkApiHardDelete,Integration,Bulk API Hard Delete - Allows user to delete records in the Bulk API without storing them in the Recycle Bin (soft delete).
PermissionsCanInsertFeedSystemFields,Import,Insert System Field Values for Chatter Feeds - Allows the user to set the CreatedById or CreatedDate for chatter post or comment from API when creating the record.
PermissionsCanUseNewDashboardBuilder,Productivity,"Drag-and-Drop Dashboard Builder - Allows the user to create, edit, and delete dashboards through the drag-and-drop dashboard."
PermissionsChatterEditOwnPost,Productivity,
PermissionsChatterEditOwnRecordPost,Productivity,
PermissionsChatterFileLink,Productivity,Create and Share Links to Chatter Files - Allows the user to Share a Chatter file with anyone by creating a file link and sending it via email or IM.
PermissionsChatterForSharePoint,Admin,Access Chatter For Sharepoint - Allows the user to access Chatter for Sharepoint.
PermissionsChatterInternalUser,Productivity,Chatter Internal User - Allows user to use all of the Chatter features.
PermissionsChatterInviteExternalUsers,External,Invite Customers To Chatter - Allows the user to invite customers (non-Salesforce users) to Chatter.
PermissionsChatterOwnGroups,Productivity,Create and Own New Chatter Groups - Allows the user to create and own new Chatter groups.
PermissionsConnectOrgToEnvironmentHub,Security,Connect Organization to Environment Hub - Allows the user to connect this Organization to an Environment Hub.
PermissionsContentAdministrator,Productivity,Manage Salesforce CRM Content - Allows the user to make changes in the CRM content.
PermissionsConvertLeads,Productivity,"Convert Leads - Allows the user to convert Leads need ""Create"" and ""Edit"" on Leads, Accounts, Contacts, and Opportunities with ""Read"" permission on any related Campaigns."
PermissionsCreateCustomizeFilters,Productivity,Create and Customize List Views - Allows the user to create list views; modify and delete own list views.
PermissionsCreateMultiforce,ALM,Create AppExchange Packages - Allows  the user to create packages that can be distributed through AppExchange.
PermissionsCreateTopics,Productivity,Create Topics - Allows the user to add new topics to a record.
PermissionsCreateWorkspaces,Productivity,Create Libraries - Allows the user to create Salesforce CRM Content libraries.
PermissionsCustomizeApplication,Admin,"Customize Application - Allows the user to customize the Organization using App Setup menu options like workflows, creating custom fields, or  Lead settings."
PermissionsDataExport,DLP,Weekly Data Export - Allows the user to run the weekly data export service.
PermissionsDeleteActivatedContract,Productivity,Delete Activated Contracts - Allows the user to delete an activated contract.
PermissionsDeleteTopics,Productivity,Delete Topics - Allows the user to add or delete topics on a record.
PermissionsDistributeFromPersWksp,Productivity,Deliver Uploaded Files and Personal Content - Allows the user  to create content deliveries from a shared library in Salesforce CRM content.
PermissionsEditBrandTemplates,Admin,"Manage Letterheads - Allows the user to create, edit, and delete letterheads layouts for HTML emails."
PermissionsEditCaseComments,Productivity,"Edit Case Comments - Allows the user to edit their own case comments,but not other user's comments."
PermissionsEditEvent,Productivity,"Edit Events - Allows the user to create,edit, and delete events."
PermissionsEditHtmlTemplates,Admin,"Edit HTML Templates - Allows the user to create, edit, and delete HTML email templates."
PermissionsEditOppLineItemUnitPrice,Productivity,Edit Opportunity Product Sales Price - Allows the user to change the sales price on Opportunity line items.
PermissionsEditPublicDocuments,Productivity,"Manage Public Documents - Allows the user to create, edit, and delete folders for public documents."
PermissionsEditPublicTemplates,Admin,"Manage Public Templates - Allows the user to create, edit, and delete text emails, mail merge templates, and folders for public email templates."
PermissionsEditReadonlyFields,Security,Edit Read Only Fields - Allows the user to edit fields that are configured as read only fields due to Page Layouts or Field-level Security.
PermissionsEditReports,Productivity,"Edit My Reports - Allows user to edit, move, save, and delete user's own reports created in shared folders."
PermissionsEditTask,Productivity,"Edit Tasks - Allows the user to  create, edit, and delete tasks."
PermissionsEditTopics,Productivity,Edit Topics - Allows the user to edit topic names and descriptions.
PermissionsEmailMass,Productivity,Mass Email - Allows the user to mass email Contacts and Leads.
PermissionsEmailSingle,Productivity,Send Email - Allows the user to send email to a single Contact or Lead.
PermissionsScheduleJob,Productivity,"Schedule Dashboards - Allows the user to schedule when dashboards refresh, and send email notifications that include refreshed dashboards in HTML format."
PermissionsExportReport,DLP,Export Reports - Allows the user to Use Export Details and Printable View to export reports.
PermissionsForceTwoFactor,Security,Two-Factor Authentication for User Interface Logins - Allows the user to create a time-based token using the mobile phone to scan a QR code generated
PermissionsIdentityEnabled,Productivity,Use Identity Features - Allows the user to  access to Identity features such as App Launcher.
PermissionsImportLeads,Import,Import Leads - Allows the user to import leads through the Import Wizard.
PermissionsInboundMigrationToolsUser,ALM,Deploy Change Sets - Allows the user to deploy inbound Change Sets.
PermissionsInstallMultiforce,ALM,Download AppExchange Packages - Allows the user to install  managed AppExchange apps in the Organization.             
PermissionsLightningExperienceUser,Productivity,Lightning Experience User - Allows a user to access the lightning user interface
PermissionsManageAnalyticSnapshots,Productivity,"Manage Reporting Snapshots - Allows the user to create, edit, and delete reporting snapshots."
PermissionsManageAuthProviders,Security,Manage Auth. Providers - Allows the user to create and edit Auth. Providers.
PermissionsManageBusinessHourHolidays,Admin,Manage Business Hours Holidays - Allows the user to make changes or update to business hours and holidays in the organizational settings.
PermissionsManageCallCenters,Admin,"Manage Call Centers - Allows the user to import, view, edit, or delete call centers in CRM."
PermissionsManageCases,Productivity,"Manage Cases - Allows the user to administer case settings, including Email-to-Case and mass transfer of cases."
PermissionsManageCategories,Admin,Manage Categories - Allows the user to create or change solutions in the CRM.
PermissionsManageChatterMessages,Admin,Manage Chatter Messages - Allows the user to access all users' messages sent in Chatter through  a SOAP API.
PermissionsManageContentPermissions,Productivity,Manage Content Permission - Allows the user to configure library content in Salesforce CRM content.
PermissionsManageContentProperties,Admin,"Manage Content Properties - Allows the user to create, edit, and delete custom fields in Salesforce CRM content."
PermissionsManageContentTypes,Productivity,"Manage Content Types - Allows the user to create, edit, and delete content types  in Salesforce CRM content."
PermissionsManageCustomReportTypes,Admin,"Manage Custom Report Types - Allows the user to create, edit, and delete custom report types."
PermissionsManageDashboards,Productivity,"Edit My Dashboards - Allows the user to edit, move, save, and delete user's own dashboards in shared folders."
PermissionsManageDataCategories,Admin,"Manage Data Categories - Allows the user to create, edit, and delete data categories."
PermissionsManageDataIntegrations,Operations,Manage Data Integrations - Allows the user to monitor or abort Bulk API jobs.
PermissionsManageDynamicDashboards,Productivity,"Manage Dynamic Dashboards - Allows the user to create, edit, and delete dynamic dashboards."
PermissionsManageInternalUsers,Security,Manage Internal Users - Allows the user to create and edit internal users.
PermissionsManageIpAddresses,Security,Manage IP Address - Allows the user to input IP addresses in Network Access settings and IP Restrictions on the profile inside of Salesforce.
PermissionsManageLeads,Productivity,Manage Leads - Allows the user to change the status of multiple Leads in a list view.
PermissionsManageLoginAccessPolicies,Security,Manage Login Access Policies - Allows the user to specify the login access policies that apply to Administrators and Support Organizations.
PermissionsManageMobile,Productivity,Manage Mobile Configurations - Allows the user access Salesforce Classic features.
PermissionsManagePasswordPolicies,Security,Manage Password Polices - Allows the user to set password restrictions and lockout policies for users.
PermissionsManageProfilesPermissionsets,Security,"Manage Profiles and Permission Sets - Allows the user to create, edit, and delete profiles and Permission Sets."
PermissionsManagePvtRptsAndDashbds,Productivity,"Manage Dashboards - Allows the user to create, edit, and delete the user's personal dashboards."
PermissionsManageRoles,Security,"Manage Roles - Allows the user to create, edit, and delete roles."
PermissionsManageSharing,Security,"Manage Sharing - Allows the user to manage sharing configurations, including Organization-wide defaults."
PermissionsManageSolutions,Admin,"Manage Published Solutions - Allows the user to create, edit, and delete solutions that accessible to the public on your Self-Service portal or Web site."
PermissionsManageTwoFactor,Security,Manage Two-Factor Authentication - Allows the user to manage the time based token secret for Two-Factor Authentication
PermissionsManageUnlistedGroups,Admin,"Manage Unlisted Groups - Allows the user to view and moderate unlisted Chatter Groups.Only members and users with the “Manage Unlisted Groups” permission can access unlisted groups in list views, feeds, and search results."
PermissionsManageUsers,Security,"Manage Users - Allows the user to create, edit, and deactivate users, and manage security settings, including profiles and roles."
PermissionsMassInlineEdit,Productivity,Mass Edits from Lists - Allows the user to mass edit records from the list view.
PermissionsModerateChatter,Admin,"Moderate Chatter - Allows the user to deactivate Chatter Free users, assign moderator privileges to Chatter Free users, and remove posts."
PermissionsModifyAllData,Security,Modify All Data  - Allows the user to make changes to all the data in the Organization.
PermissionsNewReportBuilder,Productivity,"Report Builder - Allows the user to create, edit, and delete reports using the Report Builder interface."
PermissionsOutboundMigrationToolsUser,ALM,"Create and Upload Change Sets - Allows the user to create, edit, and upload outbound Change Sets."
PermissionsPasswordNeverExpires,Security,Password Never Expires - Allows the user to a have a password that does not expire. This  permission is good for any user that is only used in API.
PermissionsResetPasswords,Security,"Reset User Passwords and Unlock Users - Allows the user to unlock users whose accounts are locked, and reset user passwords."
PermissionsRunFlow,Productivity,Run Flows - Allows the user to run flows in Salesforce.
PermissionsRunReports,Productivity,"Run Reports - Allows the user to view the reports tab, run reports, view dashboards based on reports."
PermissionsScheduleReports,Productivity,"Schedule Reports - Allows the user to run reports in the background, and export results as a CSV or Excel file on completion."
PermissionsSendSitRequests,Productivity,Send Stay-in-Touch Requests - Allows the user to Send Stay-in-Touch email requests.
PermissionsSolutionImport,Import,Import Solutions - Allows the user to import solutions using the Import Wizard.
PermissionsTransferAnyCase,Productivity,Transfer Cases - Allows the user to change the case owner field on the case Object.
PermissionsTransferAnyEntity,Productivity,Transfer Record - Allows the user to change the owner of most records.
PermissionsTransferAnyLead,Productivity,Transfer Leads - Allows the user to change the Lead owner field on the Lead Object.
PermissionsTwoFactorApi,Security,Two-Factor Authentication for API Logins - Allows the user to create a time-based token using a mobile phone to scan a QR code generated instead of the
PermissionsUseTeamReassignWizards,Productivity,Use Team Reassignment Wizards - Allows the user to mass transfer team members.
PermissionsViewAllData,Security,View All Data - Allows the user to view all the data in the Organization the user does adhere to the Organization wide defaults.
PermissionsViewAllUsers,Admin,"View All Users - Allows the user to view all users object, regardless of sharing settings configuration."
PermissionsViewDataCategories,Admin,View Data Categories - Allows the user to view the Data Categories page.
PermissionsViewEncryptedData,DLP,View Encrypted Data - Allows the user to view the value of encrypted fields in plain text.
PermissionsViewEventLogFiles,Security,
PermissionsViewHelpLink,Productivity,View Help Link - Allows the user to view help link.
PermissionsViewMyTeamsDashboards,Productivity,View My Team's Dashboards - Allows the user to view dashboards owned by people under them in the Role Hierarchy.
PermissionsViewSetup,Admin,View Setup and Configuration - Allows the user to view the App Setup menu and Administrative Settings pages.
PermissionsManageAnalyticSnapshots,Admin,"Manage Analytic Snapshots - Allows the user to create, edit, and delete Analytic Snapshots."
PermissionsEditKnowledge,Admin,Manage Articles - Allows the user to create article types and article actions.
PermissionsManageEmailClientConfig,Admin,"Manage Email Client Configurations - Allows the user to create, edit, and delete Outlook configurations for Salesforce for Outlook."
PermissionsManagePartners,Partner,Manage External Users - Allows the user to manage Partner Portal users.
PermissionsManageKnowledgeImportExport,Import,Manage Knowledge Article Import/Export - Allows the user to import/export Articles.
PermissionsManageInteraction,Productivity,Manage Force.com - Allows the user to use Force.com flows.
PermissionsCreateCustomizeFilters,Admin,"Manage Public List Views - Allows the user to create, edit, and delete public list views."
PermissionsCreateCustomizeReports,Admin,"Manage Public Reports - Allows the user to create, edit, and delete public reports."
PermissionsCreateCustomizeReports,Admin,Manage Salesforce Knowledge - Allows the user to create article types.
PermissionsEnableNotifications,API,Send Outbound Messages - Allows the user to send outbound messages to an external Web service API.
PermissionsCreateMultiforce,ALM,Create AppExchange Packages - Allows the user to create packages that can be distributed through AppExchange.
PermissionsEditReports,Productivity,"Create and Customize Reports - Allows the user to create, edit, and delete reports."
PermissionsCreateReportFolders,Productivity,"Create Report Folders - Allows the user to create, edit, and delete report folders and manage these folders if sharing rights allow."
PermissionsAllowUniversalSearch,Productivity,Knowledge One - Allows the user to view the knowledge tab instead of the articles tab.
PermissionsIPRestrictRequests,Security,"Manage IP Addresses - Allows the user to create, edit, and delete trusted IP ranges. "
PermissionsManageTerritories,Admin,Manage Territories - Allows the user to make changes in the territories settings in the Setup menu.                 
PermissionsTagManager,Productivity,Tag Manager - Allows the user to rename or delete Public Tags.
PermissionsPublishMultiforce,ALM,Upload AppExchange Packages - Allows the user to upload packages to AppExchange. Create and upload Change Sets.
